{
    "parser": "@typescript-eslint/parser",
    "plugins": [
        "@typescript-eslint"
    ],
    "extends": [
        "eslint:recommended",
        "plugin:@typescript-eslint/recommended"
    ],
    "rules": {
        "comma-dangle": [
            "warn",
            "never"
        ],
        "indent": [
            "warn",
            4
        ],
        "no-console": [
            "warn"
        ],
        "no-mixed-spaces-and-tabs": [
            "warn"
        ],
        "no-non-null-assertion": [
            "off"
        ]
    }
}